{
    "collectCoverage": true,
    "verbose": true,
    "moduleFileExtensions": ["js"],
    "testPathIgnorePatterns": ["/node_modules/", "/.cache/"],
    "modulePaths": ["__test__"],
    "setupFiles": ["jest-date-mock", "./__test__/setup.js"],
    "transform": {
        "^.+\\.js?$": "babel-jest",
        "^.+\\.jsx?$": "babel-jest"
    }
}
